Не найдено слово в словаре - 54
Не построилось дерево - 17
Не слиты слова - 9
Не вставлен пробел - 8
Неверно отсеян чанк - 7
Расстояние Левенштейна > 1 - 4
? - 3
Не добавлен предлог - 1
Не заменено одиночное слово - 1
не/ни - 1
Некорректное слово найдено в словаре - 1

=================================

итого - 106 ошибок в 100 твитах 